127.00.0.0.0 foo 
t

::1     localhost ip6-localhost ip6-loopback
ff02::1 ip6-allnodes
ff02::2 ip6-allrouters
# user-blocklist-start #
0.0.0.0 sstatic.net
0.0.0.0 stackoverflow.com
0.0.0.0 teliasoneracdn.net
0.0.0.0 vivo.sx
0.0.0.0 usertrust.com
# user-blocklist-end #

0.0.0.0 foo 
