Sun May 15 00:04:03 2016 r5---sn-h0j7sn7s.googlevideo.com
Sun May 15 00:04:54 2016 plus.google.com
Sun May 15 00:09:29 2016 i1.ytimg.com
Sun May 15 00:09:29 2016 fonts.gstatic.com
Sun May 15 00:09:29 2016 youtube-ui.l.google.com
