Sat May 14 22:19:25 2016 plus.google.com
Sat May 14 22:21:42 2016 p41-caldav-current.edge.icloud.apple-dns.net
Sat May 14 22:24:09 2016 plus.google.com
Sat May 14 22:39:00 2016 pd-nk.itunes-apple.com.akadns.net
Sat May 14 22:39:21 2016 scontent.xx.fbcdn.net
