Sat May 14 16:28:09 2016 p41-ckdatabase-current.edge.icloud.apple-dns.net
Sat May 14 16:28:09 2016 p41-keyvalueservice-current.edge.icloud.apple-dns.net
Sat May 14 16:33:35 2016 p41-caldav-current.edge.icloud.apple-dns.net
Sat May 14 16:39:02 2016 www.wholecloud.net
Sat May 14 16:39:05 2016 auroravid.to
