Sat May 14 23:57:51 2016 freedns.afraid.org
Sat May 14 23:59:06 2016 plus.google.com
Sun May 15 00:00:01 2016 internalcheck.apple.com
Sun May 15 00:00:49 2016 youtube-ui.l.google.com
Sun May 15 00:04:03 2016 r5---sn-h0j7sn7s.googlevideo.com
