Mon May 16 01:04:05 2016 vivo.sx
Mon May 16 01:04:05 2016 5.cdn.vivo.sx
Mon May 16 01:08:21 2016 www.sublimetext.com
Mon May 16 01:09:00 2016 freedns.afraid.org
Mon May 16 01:12:18 2016 plus.google.com
Mon May 16 01:20:07 2016 plus.google.com
Mon May 16 01:22:50 2016 p41-contacts-current.edge.icloud.apple-dns.net
Mon May 16 01:23:29 2016 radarsubmissions.apple.com
Mon May 16 01:26:15 2016 startpage.com
Mon May 16 01:26:15 2016 data.getadblock.com
Mon May 16 01:26:15 2016 safari-extensions.apple.com
Mon May 16 01:26:15 2016 www.marcelthomas.co.uk
Mon May 16 01:26:15 2016 sr.symcd.com
Mon May 16 01:32:36 2016 plus.google.com
Mon May 16 01:39:18 2016 plus.google.com
Mon May 16 01:42:00 2016 streamcloud.eu
Mon May 16 01:42:04 2016 www.wholecloud.net
Mon May 16 01:42:05 2016 s193.zerocdn.to
Mon May 16 01:46:57 2016 p41-caldav.icloud.com
Mon May 16 01:52:45 2016 plus.google.com
Mon May 16 01:59:27 2016 plus.google.com
Mon May 16 02:02:25 2016 powerwatch.pw
Mon May 16 02:09:03 2016 freedns.afraid.org
Mon May 16 02:13:40 2016 plus.google.com
Mon May 16 02:18:37 2016 plus.google.com
