Sun May 15 00:09:55 2016 clients1.google.com
Sun May 15 00:09:55 2016 www.google.com
Sun May 15 00:10:08 2016 clients6.google.com
Sun May 15 00:10:25 2016 p41-keyvalueservice-current.edge.icloud.apple-dns.net
Sun May 15 00:10:25 2016 p41-keyvalueservice-current.edge.icloud.apple-dns.net
