Mon May 16 02:20:48 2016 streamcloud.eu
Mon May 16 02:20:50 2016 vivo.sx
Mon May 16 02:20:51 2016 5.cdn.vivo.sx
Mon May 16 02:22:50 2016 p41-contacts.icloud.com
Mon May 16 02:32:35 2016 gspe35-ssl.ls.apple.com
Mon May 16 02:33:20 2016 plus.google.com
Mon May 16 02:35:30 2016 apresolve.spotify.com
Mon May 16 02:35:30 2016 sto3-accesspoint-a50.ap.spotify.com
Mon May 16 02:39:16 2016 plus.google.com
Mon May 16 02:39:21 2016 shared.sx
Mon May 16 02:39:22 2016 bella.storage.shared.sx
Mon May 16 02:46:56 2016 gspe35-ssl.ls.apple.com
Mon May 16 02:46:57 2016 gs-loc.apple.com
Mon May 16 02:47:10 2016 init-s01st.push.apple.com
Mon May 16 02:47:10 2016 aia.entrust.net
Mon May 16 02:47:10 2016 6-courier.sandbox.push.apple.com
Mon May 16 02:47:35 2016 gsp10-ssl.apple.com
Mon May 16 02:48:10 2016 init-p01st.push.apple.com
Mon May 16 02:48:10 2016 a57.d.akamai.net
Mon May 16 02:48:10 2016 8-courier.push.apple.com
Mon May 16 02:53:29 2016 plus.google.com
Mon May 16 03:00:11 2016 plus.google.com
Mon May 16 03:09:06 2016 freedns.afraid.org
Mon May 16 03:13:53 2016 plus.google.com
Mon May 16 03:20:38 2016 plus.google.com
