Sat May 14 12:36:11 2016 p41-ckdatabase-current.edge.icloud.apple-dns.net
Sat May 14 12:37:58 2016 p41-keyvalueservice-current.edge.icloud.apple-dns.net
Sat May 14 12:38:00 2016 blog.rust-lang.org
Sat May 14 12:38:01 2016 www.rust-lang.org
Sat May 14 12:38:20 2016 p41-keyvalueservice-current.edge.icloud.apple-dns.net
Sat May 14 12:39:17 2016 github.com
Sat May 14 12:39:18 2016 blog.thiago.me
Sat May 14 12:39:18 2016 assets-cdn.github.com
Sat May 14 12:39:18 2016 avatars3.githubusercontent.com
Sat May 14 12:39:18 2016 avatars2.githubusercontent.com
Sat May 14 12:39:18 2016 mirrors.link
Sat May 14 12:39:18 2016 googleadapis.l.google.com
Sat May 14 12:39:19 2016 live.github.com
Sat May 14 12:39:19 2016 fonts.gstatic.com
Sat May 14 12:39:19 2016 www.tldp.org
Sat May 14 12:39:19 2016 api.github.com
Sat May 14 12:39:19 2016 elinux.org
Sat May 14 12:39:25 2016 planet.gnu.org
Sat May 14 12:39:25 2016 ycloninator.herokuapp.com
Sat May 14 12:39:27 2016 ihackernews.com
Sat May 14 12:39:34 2016 p41-caldav-current.edge.icloud.apple-dns.net
Sat May 14 12:39:37 2016 p41-keyvalueservice-current.edge.icloud.apple-dns.net
Sat May 14 12:40:51 2016 p41-ckdatabase-current.edge.icloud.apple-dns.net
Sat May 14 12:41:11 2016 plus.google.com
Sat May 14 12:41:25 2016 csi.gstatic.com
