Sat May 14 02:12:47 2016 p41-caldav-current.edge.icloud.apple-dns.net
Sat May 14 02:21:48 2016 pd-nk.itunes.apple.com
Sat May 14 02:21:49 2016 init.itunes.apple.com
Sat May 14 02:21:50 2016 xp.apple.com
Sat May 14 02:28:48 2016 --- deauthenticated 
Sat May 14 12:24:59 2016 +++ authenticated 10.0.0.242 MacFlyBook
Sat May 14 12:25:01 2016 init-p01st.push.apple.com
Sat May 14 12:25:01 2016 16-courier.push.apple.com
Sat May 14 12:25:01 2016 1-courier.push.apple.com
Sat May 14 12:25:01 2016 www.apple.com
Sat May 14 12:25:01 2016 apple.com
Sat May 14 12:25:01 2016 www.icloud.com
Sat May 14 12:25:01 2016 1-courier.sandbox.push.apple.com
Sat May 14 12:25:01 2016 5-courier.sandbox.push.apple.com
Sat May 14 12:25:01 2016 aia.entrust.net
Sat May 14 12:25:01 2016 34-courier.push.apple.com
Sat May 14 12:25:05 2016 p05-calendars.icloud.com
Sat May 14 12:25:05 2016 calendar.google.com
Sat May 14 12:25:05 2016 www.webcal.fi
Sat May 14 12:25:05 2016 www.figu.org
Sat May 14 12:25:05 2016 p02-calendars.icloud.com
Sat May 14 12:25:05 2016 p41-caldav.icloud.com
Sat May 14 12:25:06 2016 gspe1-ssl.ls.apple.com
Sat May 14 12:25:17 2016 p41-contacts.icloud.com
Sat May 14 12:25:18 2016 www.flashx.tv
