Sat May 14 23:51:00 2016 pd-nk.itunes.apple.com
Sat May 14 23:51:50 2016 clients1.google.com
Sat May 14 23:52:01 2016 www.google.com
Sat May 14 23:52:01 2016 www.youtube.com
Sat May 14 23:52:02 2016 yt3.ggpht.com
