Sun May 15 00:17:30 2016 www.apple.com
Sun May 15 00:17:30 2016 apple.com
Sun May 15 00:17:30 2016 api.smoot.apple.com
Sun May 15 00:17:30 2016 p41-keyvalueservice.icloud.com
Sun May 15 00:17:30 2016 1-courier.sandbox.push.apple.com
