Sat May 14 16:22:29 2016 www.engadget.com
Sat May 14 16:22:31 2016 www.blogsmithmedia.com
Sat May 14 16:22:31 2016 s.swiftypecdn.com
Sat May 14 16:22:32 2016 o.aolcdn.com
Sat May 14 16:22:35 2016 cc.swiftype.com
