Sat May 14 21:10:50 2016 u.scdn.co
Sat May 14 21:13:23 2016 p41-contacts-current.edge.icloud.apple-dns.net
Sat May 14 21:20:31 2016 plus.google.com
Sat May 14 21:23:34 2016 gsp10-ssl.apple.com
Sat May 14 21:27:42 2016 p41-caldav-current.edge.icloud.apple-dns.net
