Sun May 15 20:52:55 2016 origin.guzzoni-apple.com.akadns.net
Sun May 15 20:52:55 2016 www.apple.com
Sun May 15 20:53:12 2016 gs-loc.apple.com
Sun May 15 20:53:12 2016 e6858.dscc.akamaiedge.net
Sun May 15 20:53:14 2016 api.bufferapp.com
Sun May 15 20:53:18 2016 14-courier.push.apple.com
Sun May 15 20:54:03 2016 e11.whatsapp.net
Sun May 15 20:54:09 2016 e6858.dscc.akamaiedge.net
Sun May 15 21:10:36 2016 e8.whatsapp.net
Sun May 15 21:25:19 2016 time-ios.g.aaplimg.com
Sun May 15 21:25:19 2016 origin.guzzoni-apple.com.akadns.net
Sun May 15 21:25:19 2016 www.google.com
Sun May 15 21:25:19 2016 e6858.dscc.akamaiedge.net
Sun May 15 21:25:21 2016 p41-caldav.icloud.com
Sun May 15 21:25:21 2016 www.apple.com
Sun May 15 21:25:23 2016 caldav.icloud.com
Sun May 15 21:25:24 2016 p24-caldav.icloud.com
Sun May 15 21:25:25 2016 p24-calendars.icloud.com
Sun May 15 21:40:05 2016 p41-caldav-current.edge.icloud.apple-dns.net
Sun May 15 21:40:06 2016 e11.whatsapp.net
Sun May 15 21:44:21 2016 e2.whatsapp.net
Sun May 15 21:44:39 2016 apple.com
Sun May 15 21:44:39 2016 guzzoni.apple.com
Sun May 15 21:44:39 2016 www.apple.com.edgekey.net.globalredir.akadns.net
Sun May 15 21:44:45 2016 init-p01st.push.apple.com
