Sat May 14 16:21:06 2016 b.aol.com
Sat May 14 16:21:07 2016 cc.swiftype.com
Sat May 14 16:21:07 2016 d8rk54i4mohrb.cloudfront.net
Sat May 14 16:21:09 2016 trc.taboola.com
Sat May 14 16:21:09 2016 b-aws.engadget.com
