Sat May 14 17:17:00 2016 lh6.googleusercontent.com
Sat May 14 17:17:04 2016 lh4.googleusercontent.com
Sat May 14 17:18:20 2016 iphone-ld.apple.com
Sat May 14 17:18:51 2016 video-stats.l.google.com
Sat May 14 17:18:51 2016 www.googleapis.com
