Sat May 14 16:44:44 2016 p41-keyvalueservice-current.edge.icloud.apple-dns.net
Sat May 14 16:45:06 2016 e6428.e9.akamaiedge.net
Sat May 14 16:45:06 2016 a1507.b.akamai.net
Sat May 14 16:45:06 2016 r12---sn-h0j7snel.googlevideo.com
Sat May 14 16:45:08 2016 r7---sn-4g57knkk.googlevideo.com
