Sat May 14 05:11:53 2016 www.google.at
Sat May 14 05:11:54 2016 www.google.be
Sat May 14 05:11:54 2016 www.google.ca
Sat May 14 05:11:54 2016 www.google.ch
Sat May 14 05:11:55 2016 www.google.co.id
Sat May 14 05:11:55 2016 www.google.co.in
Sat May 14 05:11:56 2016 www.google.co.jp
Sat May 14 05:11:56 2016 www.google.co.kr
Sat May 14 05:12:18 2016 www.google.co.nz
Sat May 14 05:12:19 2016 www.google.co.th
Sat May 14 05:12:19 2016 www.google.co.uk
Sat May 14 05:12:20 2016 www.google.co.za
Sat May 14 05:12:20 2016 www.google.com
Sat May 14 05:12:20 2016 www.google.com.ar
Sat May 14 05:12:21 2016 www.google.com.au
Sat May 14 05:12:21 2016 www.google.com.br
Sat May 14 05:12:22 2016 www.google.com.hk
Sat May 14 05:12:22 2016 www.google.com.mx
Sat May 14 05:12:22 2016 www.google.com.sg
Sat May 14 05:12:23 2016 www.google.com.tw
Sat May 14 05:12:23 2016 www.google.com.ua
Sat May 14 05:12:24 2016 www.google.de
Sat May 14 05:13:05 2016 www.google.dk
Sat May 14 05:13:05 2016 www.google.es
Sat May 14 05:13:06 2016 www.google.fi
