Sat May 14 16:27:25 2016 accounts.google.com
Sat May 14 16:27:25 2016 www.youtube-nocookie.com
Sat May 14 16:27:26 2016 p17-buy.itunes.apple.com
Sat May 14 16:27:26 2016 s.youtube.com
Sat May 14 16:27:26 2016 manifest.googlevideo.com
