Sat May 14 17:08:06 2016 p41-keyvalueservice-current.edge.icloud.apple-dns.net
Sat May 14 17:08:20 2016 video-stats.l.google.com
Sat May 14 17:08:30 2016 r15---sn-h0j7sn7y.googlevideo.com
Sat May 14 17:08:30 2016 e6428.e9.akamaiedge.net
Sat May 14 17:08:30 2016 a1507.b.akamai.net
