Sat May 14 16:41:23 2016 csi.gstatic.com
Sat May 14 16:41:24 2016 r8---sn-p5qlsnez.googlevideo.com
Sat May 14 16:44:25 2016 init-p01md.apple.com
Sat May 14 16:44:26 2016 init.ess.apple.com
Sat May 14 16:44:26 2016 query.ess.apple.com
