Sat May 14 17:19:48 2016 r18---sn-h0j7sn76.googlevideo.com
Sat May 14 17:19:48 2016 photos-ugc.l.googleusercontent.com
Sat May 14 17:19:49 2016 i.ytimg.com
Sat May 14 17:19:49 2016 csi.gstatic.com
Sat May 14 17:23:51 2016 video-stats.l.google.com
