Sun May 15 00:52:57 2016 www.lduhtrp.net
Sun May 15 00:52:57 2016 www.usenext.de
Sun May 15 00:52:57 2016 cj.dotomi.com
Sun May 15 00:52:57 2016 www.kdukvh.com
Sun May 15 00:53:23 2016 authenticated 10.0.0.232 DanielRueppel
