Sun May 15 00:53:38 2016 rs2.adledge.com
Sun May 15 00:53:38 2016 pxl.connexity.net
Sun May 15 00:53:38 2016 atemda.com
Sun May 15 00:53:39 2016 ad.360yield.com
Sun May 15 00:53:39 2016 ih.adscale.de
