Sun May 15 11:39:29 2016 googleads.g.doubleclick.net
Sun May 15 11:39:43 2016 www.google.com
Sun May 15 11:39:43 2016 cm.g.doubleclick.net
Sun May 15 11:39:43 2016 encrypted-tbn0.gstatic.com
Sun May 15 11:39:43 2016 fonts.googleapis.com
Sun May 15 11:39:43 2016 gsync.nuggad.net
Sun May 15 11:39:43 2016 pagead2.googlesyndication.com
Sun May 15 11:39:43 2016 tpc.googlesyndication.com
Sun May 15 11:39:43 2016 www.gstatic.com
Sun May 15 11:39:43 2016 adx.g.doubleclick.net
Sun May 15 11:39:43 2016 dt.adsafeprotected.com
Sun May 15 11:39:43 2016 googleads4.g.doubleclick.net
Sun May 15 11:39:43 2016 pixel.adsafeprotected.com
Sun May 15 11:39:43 2016 ad.doubleclick.net
Sun May 15 11:39:43 2016 s0.2mdn.net
Sun May 15 11:39:43 2016 static.adsafeprotected.com
Sun May 15 11:39:47 2016 apis.google.com
Sun May 15 11:39:47 2016 fonts.gstatic.com
Sun May 15 11:39:47 2016 clients1.google.com
Sun May 15 11:39:47 2016 r9---sn-h0j7sne7.googlevideo.com
Sun May 15 11:39:48 2016 ssl.gstatic.com
Sun May 15 11:39:48 2016 s.youtube.com
Sun May 15 11:39:48 2016 yt3.ggpht.com
Sun May 15 11:40:03 2016 r13---sn-h0j7snel.googlevideo.com
Sun May 15 11:40:04 2016 www.youtube-nocookie.com
