Sun May 15 00:49:12 2016 help.apple.com
Sun May 15 00:49:13 2016 ocsp-ds.ws.symantec.com.edgekey.net
Sun May 15 00:49:33 2016 machelp.techsmith.com
Sun May 15 00:49:47 2016 raspbx.no-ip.biz
Sun May 15 00:49:50 2016 deauthenticated 
