Sun May 15 00:53:38 2016 idsync.rlcdn.com
Sun May 15 00:53:38 2016 magnetic.t.domdex.com
Sun May 15 00:53:38 2016 pixel.tapad.com
Sun May 15 00:53:38 2016 c1.adform.net
Sun May 15 00:53:38 2016 rtb-rubicon-user-sync.virool.com
