Sun May 15 00:33:35 2016 pixel.advertising.com
Sun May 15 00:33:35 2016 uk.at.atwola.com
Sun May 15 00:33:35 2016 secure.adnxs.com
Sun May 15 00:33:35 2016 secure-ams.adnxs.com
Sun May 15 00:33:35 2016 ad.doubleclick.net
