Sun May 15 00:46:27 2016 e3442.g.akamaiedge.net
Sun May 15 00:46:38 2016 mciq.ff.avast.com
Sun May 15 00:46:41 2016 e3442.g.akamaiedge.net
Sun May 15 00:46:42 2016 auth.ff.avast.com
Sun May 15 00:46:42 2016 streamback.ff.avast.com
