Sun May 15 00:43:46 2016 raspbx.no-ip.biz
Sun May 15 00:44:46 2016 raspbx.no-ip.biz
Sun May 15 00:45:03 2016 raspbx.no-ip.biz
Sun May 15 00:45:03 2016 raspbx.no-ip.biz
Sun May 15 00:45:25 2016 clients2.google.com
