Sun May 15 00:52:35 2016 bid.g.doubleclick.net
Sun May 15 00:52:35 2016 cm.g.doubleclick.net
Sun May 15 00:52:35 2016 thumbs3.ebaystatic.com
Sun May 15 00:52:35 2016 adx.g.doubleclick.net
Sun May 15 00:52:35 2016 pixel.mathtag.com
