Sun May 15 00:52:35 2016 googleads4.g.doubleclick.net
Sun May 15 00:52:35 2016 securertm.ebaystatic.com
Sun May 15 00:52:35 2016 us-u.openx.net
Sun May 15 00:52:35 2016 ewkzagpevofoeos.lan
Sun May 15 00:52:35 2016 xatgsjhwoemrx.lan
