Sun May 15 00:52:48 2016 eu-gce-user.bidswitch.net
Sun May 15 00:52:48 2016 pm.w55c.net
Sun May 15 00:52:48 2016 cm.adgrx.com
Sun May 15 00:52:48 2016 sync.adaptv.advertising.com
Sun May 15 00:52:48 2016 kaspersky.commander1.com
