Sun May 15 00:39:31 2016 zbcayczlgvmhx.lan
Sun May 15 00:39:31 2016 auqwewysi.lan
Sun May 15 00:39:31 2016 wywwrajnpekgimr.lan
Sun May 15 00:39:44 2016 clients1.google.com
Sun May 15 00:39:52 2016 p44-quota.icloud.com
