Sun May 15 00:53:35 2016 pages.ebay.de
Sun May 15 00:53:35 2016 reg.ebay.de
Sun May 15 00:53:35 2016 resolutioncenter.ebay.de
Sun May 15 00:53:35 2016 signin.ebay.de
Sun May 15 00:53:36 2016 pixel.mathtag.com
