Sun May 15 01:25:49 2016 deauthenticated 
Sun May 15 01:45:22 2016 authenticated 10.0.0.232 DanielRueppel
Sun May 15 01:45:22 2016 wpad.lan
Sun May 15 01:45:22 2016 wpad.lan
Sun May 15 01:45:22 2016 conn.skype.com
Sun May 15 01:45:22 2016 fe-prg007.nos-avg.cz
Sun May 15 01:45:22 2016 www.google.com
Sun May 15 01:45:22 2016 teredo.ipv6.microsoft.com
Sun May 15 01:45:22 2016 imylktipxjsytz.lan
Sun May 15 01:45:23 2016 swexgnyuq.lan
Sun May 15 01:45:23 2016 cmzsxjindbwcg.lan
Sun May 15 01:45:23 2016 100.0.21.7.0.rst8.r.skype.net
Sun May 15 01:45:23 2016 wpad.lan
Sun May 15 01:45:23 2016 s.gateway.messenger.live.com
Sun May 15 01:45:23 2016 time.apple.com
Sun May 15 01:45:23 2016 wpad.lan
Sun May 15 01:45:23 2016 wpad.lan
Sun May 15 01:45:23 2016 wpad.lan
Sun May 15 01:45:23 2016 wpad.lan
Sun May 15 01:45:23 2016 api.mcr.skype.com
Sun May 15 01:45:23 2016 mobile.pipe.aria.microsoft.com
Sun May 15 01:45:23 2016 dsn13.d.skype.net
Sun May 15 01:45:23 2016 go.trouter.io
Sun May 15 01:45:23 2016 bqxxpfffhqf.lan
Sun May 15 01:45:23 2016 ugcteyylyyc.lan
