Sun May 15 11:46:18 2016 www.cnn.com
Sun May 15 11:46:19 2016 edition.cnn.com
Sun May 15 11:46:19 2016 a.visualrevenue.com
Sun May 15 11:46:19 2016 a.postrelease.com
Sun May 15 11:46:19 2016 aax.amazon-adsystem.com
Sun May 15 11:46:19 2016 ads.rubiconproject.com
Sun May 15 11:46:19 2016 c.go-mpulse.net
Sun May 15 11:46:19 2016 cdn.krxd.net
Sun May 15 11:46:19 2016 cdn.pivit.io
Sun May 15 11:46:19 2016 consent.truste.com
Sun May 15 11:46:19 2016 data.cnn.com
Sun May 15 11:46:19 2016 edition.i.cdn.cnn.com
Sun May 15 11:46:19 2016 ht.cdn.turner.com
Sun May 15 11:46:19 2016 i.cdn.turner.com
Sun May 15 11:46:19 2016 i2.cdn.turner.com
Sun May 15 11:46:19 2016 partner.googleadservices.com
Sun May 15 11:46:19 2016 pmd.cdn.turner.com
Sun May 15 11:46:19 2016 s.skimresources.com
Sun May 15 11:46:19 2016 segment-data-us-east.zqtk.net
Sun May 15 11:46:19 2016 tpc.googlesyndication.com
Sun May 15 11:46:19 2016 traffic.outbrain.com
Sun May 15 11:46:19 2016 vrt.outbrain.com
Sun May 15 11:46:19 2016 w.usabilla.com
Sun May 15 11:46:19 2016 weather.cnn.com
Sun May 15 11:46:19 2016 www.google.com
