Sun May 15 11:24:56 2016 safebrowsing.google.com
Sun May 15 11:25:02 2016 www.ad4mat.net
Sun May 15 11:25:02 2016 cct.o2online.de
Sun May 15 11:25:02 2016 postviewcookie.1-2-3.tv
Sun May 15 11:25:02 2016 m.exactag.com
Sun May 15 11:25:02 2016 portal.o2online.de
Sun May 15 11:25:13 2016 ox-d.ebayde.servedbyopenx.com
Sun May 15 11:25:14 2016 tags.mathtag.com
Sun May 15 11:25:14 2016 d.chango.com
Sun May 15 11:25:14 2016 s.kau.li
Sun May 15 11:25:14 2016 idsync.rlcdn.com
Sun May 15 11:25:14 2016 s.acexedge.com
Sun May 15 11:25:14 2016 c.t4ft.de
Sun May 15 11:25:14 2016 rs.adledge.com
Sun May 15 11:25:15 2016 ser.adledge.com
Sun May 15 11:25:15 2016 ad.ad-srv.net
Sun May 15 11:25:15 2016 dis.criteo.com
Sun May 15 11:25:15 2016 sync.go.sonobi.com
Sun May 15 11:25:15 2016 n10.ad.ad-srv.net
Sun May 15 11:25:15 2016 dpm.demdex.net
Sun May 15 11:25:15 2016 sync.search.spotxchange.com
Sun May 15 11:25:15 2016 rs2.adledge.com
Sun May 15 11:25:16 2016 www.zanox-affiliate.de
Sun May 15 11:25:16 2016 epn.adledge.com
Sun May 15 11:25:16 2016 impde.tradedoubler.com
