Sun May 15 00:52:47 2016 pixel.sitescout.com
Sun May 15 00:52:47 2016 acuityplatform.com
Sun May 15 00:52:47 2016 tracking.m6r.eu
Sun May 15 00:52:47 2016 cms.quantserve.com
Sun May 15 00:52:47 2016 rcp.c.appier.net
