Sun May 15 11:30:00 2016 dsl-tarife.focus.de
Sun May 15 11:30:00 2016 unternehmen.focus.de
Sun May 15 11:30:00 2016 www.twitter.com
Sun May 15 11:30:00 2016 twcapi.focus.de
Sun May 15 11:30:00 2016 www.youtube.com
Sun May 15 11:30:01 2016 www.samsung.com
Sun May 15 11:30:01 2016 www.google-analytics.com
Sun May 15 11:30:01 2016 stats.g.doubleclick.net
Sun May 15 11:31:14 2016 bs.serving-sys.com
Sun May 15 11:31:14 2016 c.amazon-adsystem.com
Sun May 15 11:31:14 2016 cdn.optimizely.com
Sun May 15 11:31:15 2016 spoods.rce.veeseo.com
Sun May 15 11:31:15 2016 s0.2mdn.net
Sun May 15 11:31:16 2016 aax.amazon-adsystem.com
Sun May 15 11:31:16 2016 90675872.log.optimizely.com
Sun May 15 11:31:16 2016 lebenslauf.focus.de
Sun May 15 11:31:16 2016 r.refinedads.com
Sun May 15 11:31:16 2016 sportwetten.focus.de
Sun May 15 11:31:16 2016 twitter.com
Sun May 15 11:31:16 2016 dyn.emetriq.de
Sun May 15 11:31:16 2016 www.facebook.com
Sun May 15 11:31:16 2016 ups.xplosion.de
Sun May 15 11:31:17 2016 eu-gmtdmp.gd1.mookie1.com
Sun May 15 11:31:18 2016 secure-ds.serving-sys.com
Sun May 15 11:31:18 2016 s79.mxcdn.net
